xpm_cdc.sv,systemverilog,xil_defaultlib,../../../../../../../../../Xilinx/Vivado/2019.1/data/ip/xpm/xpm_cdc/hdl/xpm_cdc.sv,incdir="../../../../sim_ADC2AXI.srcs/sources_1/bd/design_1/ipshared/c923"incdir="../../../../sim_ADC2AXI.srcs/sources_1/bd/design_1/ipshared/c923"
xpm_VCOMP.vhd,vhdl,xpm,../../../../../../../../../Xilinx/Vivado/2019.1/data/ip/xpm/xpm_VCOMP.vhd,incdir="../../../../sim_ADC2AXI.srcs/sources_1/bd/design_1/ipshared/c923"incdir="../../../../sim_ADC2AXI.srcs/sources_1/bd/design_1/ipshared/c923"
ADC2AXI_v1_0_M00_AXIS.v,verilog,xil_defaultlib,../../../bd/design_1/ipshared/fabb/src/ADC2AXI_v1_0_M00_AXIS.v,incdir="../../../../sim_ADC2AXI.srcs/sources_1/bd/design_1/ipshared/c923"incdir="../../../../sim_ADC2AXI.srcs/sources_1/bd/design_1/ipshared/c923"
ram_4096_v1_0.v,verilog,xil_defaultlib,../../../bd/design_1/ipshared/fabb/src/ram_4096_v1_0.v,incdir="../../../../sim_ADC2AXI.srcs/sources_1/bd/design_1/ipshared/c923"incdir="../../../../sim_ADC2AXI.srcs/sources_1/bd/design_1/ipshared/c923"
ram_control_v1_0.v,verilog,xil_defaultlib,../../../bd/design_1/ipshared/fabb/src/ram_control_v1_0.v,incdir="../../../../sim_ADC2AXI.srcs/sources_1/bd/design_1/ipshared/c923"incdir="../../../../sim_ADC2AXI.srcs/sources_1/bd/design_1/ipshared/c923"
ADC2AXI_v1_0.v,verilog,xil_defaultlib,../../../bd/design_1/ipshared/fabb/src/ADC2AXI_v1_0.v,incdir="../../../../sim_ADC2AXI.srcs/sources_1/bd/design_1/ipshared/c923"incdir="../../../../sim_ADC2AXI.srcs/sources_1/bd/design_1/ipshared/c923"
design_1_ADC2AXIS_0_0.v,verilog,xil_defaultlib,../../../bd/design_1/ip/design_1_ADC2AXIS_0_0/sim/design_1_ADC2AXIS_0_0.v,incdir="../../../../sim_ADC2AXI.srcs/sources_1/bd/design_1/ipshared/c923"incdir="../../../../sim_ADC2AXI.srcs/sources_1/bd/design_1/ipshared/c923"
design_1.v,verilog,xil_defaultlib,../../../bd/design_1/sim/design_1.v,incdir="../../../../sim_ADC2AXI.srcs/sources_1/bd/design_1/ipshared/c923"incdir="../../../../sim_ADC2AXI.srcs/sources_1/bd/design_1/ipshared/c923"
counter_v1_0.v,verilog,xil_defaultlib,../../../bd/design_1/ipshared/de74/hdl/counter_v1_0.v,incdir="../../../../sim_ADC2AXI.srcs/sources_1/bd/design_1/ipshared/c923"incdir="../../../../sim_ADC2AXI.srcs/sources_1/bd/design_1/ipshared/c923"
design_1_counter_0_0.v,verilog,xil_defaultlib,../../../bd/design_1/ip/design_1_counter_0_0/sim/design_1_counter_0_0.v,incdir="../../../../sim_ADC2AXI.srcs/sources_1/bd/design_1/ipshared/c923"incdir="../../../../sim_ADC2AXI.srcs/sources_1/bd/design_1/ipshared/c923"
design_1_clk_wiz_0_0_clk_wiz.v,verilog,xil_defaultlib,../../../bd/design_1/ip/design_1_clk_wiz_0_0/design_1_clk_wiz_0_0_clk_wiz.v,incdir="../../../../sim_ADC2AXI.srcs/sources_1/bd/design_1/ipshared/c923"incdir="../../../../sim_ADC2AXI.srcs/sources_1/bd/design_1/ipshared/c923"
design_1_clk_wiz_0_0.v,verilog,xil_defaultlib,../../../bd/design_1/ip/design_1_clk_wiz_0_0/design_1_clk_wiz_0_0.v,incdir="../../../../sim_ADC2AXI.srcs/sources_1/bd/design_1/ipshared/c923"incdir="../../../../sim_ADC2AXI.srcs/sources_1/bd/design_1/ipshared/c923"
design_1_clk_wiz_1_0_clk_wiz.v,verilog,xil_defaultlib,../../../bd/design_1/ip/design_1_clk_wiz_1_0/design_1_clk_wiz_1_0_clk_wiz.v,incdir="../../../../sim_ADC2AXI.srcs/sources_1/bd/design_1/ipshared/c923"incdir="../../../../sim_ADC2AXI.srcs/sources_1/bd/design_1/ipshared/c923"
design_1_clk_wiz_1_0.v,verilog,xil_defaultlib,../../../bd/design_1/ip/design_1_clk_wiz_1_0/design_1_clk_wiz_1_0.v,incdir="../../../../sim_ADC2AXI.srcs/sources_1/bd/design_1/ipshared/c923"incdir="../../../../sim_ADC2AXI.srcs/sources_1/bd/design_1/ipshared/c923"
glbl.v,Verilog,xil_defaultlib,glbl.v
